Homework 3
…
library(bayesplot)
posterior <- as.array(fit)

# numerical intervals
mcmc_intervals_data(posterior)[1, ]

## # A tibble: 1 x 9
##   parameter outer_width inner_width point_est    ll     l     m     h    hh
##   <fct>           <dbl>       <dbl> <chr>     <dbl> <dbl> <dbl> <dbl> <dbl>
## 1 theta             0.9         0.5 median     1.86  2.27  2.55  2.82  3.25

# numerical areas
mcmc_areas_data(posterior)

## # A tibble: 5,279 x 7
##    parameter interval interval_width     x density scaled_density
##    <fct>     <chr>             <dbl> <dbl>   <dbl>          <dbl>
##  1 theta     inner               0.5  2.27   0.746          0.788
##  2 theta     inner               0.5  2.27   0.746          0.789
##  3 theta     inner               0.5  2.27   0.747          0.789
##  4 theta     inner               0.5  2.27   0.748          0.790
##  5 theta     inner               0.5  2.27   0.748          0.791
##  6 theta     inner               0.5  2.27   0.749          0.791
##  7 theta     inner               0.5  2.27   0.750          0.792
##  8 theta     inner               0.5  2.27   0.750          0.793
##  9 theta     inner               0.5  2.27   0.751          0.793
## 10 theta     inner               0.5  2.27   0.751          0.794
## # ... with 5,269 more rows, and 1 more variable: plotting_density <dbl>
…
